<?xml version="1.0" encoding="UTF-8" standalone="no"?>
<!DOCTYPE svg PUBLIC "-//W3C//DTD SVG 1.1//EN" "http://www.w3.org/Graphics/SVG/1.1/DTD/svg11.dtd">
<svg width="100%" height="100%" viewBox="0 0 100 100" version="1.1" xmlns="http://www.w3.org/2000/svg" xmlns:xlink="http://www.w3.org/1999/xlink" xml:space="preserve" xmlns:serif="http://www.serif.com/" style="fill-rule:evenodd;clip-rule:evenodd;stroke-linejoin:round;stroke-miterlimit:1.41421;">
    <g id="g36" transform="matrix(1,0,0,1,-380.831,-293.894)">
        <g id="path30" transform="matrix(3.00066,0,0,3.00066,-761.912,-591.184)">
            <path d="M409.623,306.302C409.593,306.178 409.516,306.073 409.407,306.007L407.128,304.624L408.593,302.213C408.855,301.783 408.933,301.275 408.813,300.784C408.693,300.297 408.388,299.884 407.955,299.624C407.53,299.365 407.017,299.286 406.533,299.404C406.044,299.523 405.63,299.825 405.367,300.257L403.903,302.671L400.768,300.771L402.23,298.357C402.765,297.467 402.479,296.305 401.592,295.764C401.299,295.588 400.963,295.495 400.62,295.495C399.961,295.495 399.341,295.843 399.004,296.401L397.539,298.814L395.231,297.414C395.124,297.35 394.995,297.329 394.868,297.361C394.745,297.392 394.638,297.472 394.574,297.581C394.567,297.593 394.554,297.613 394.534,297.648C394.44,297.806 394.184,298.237 393.808,298.857C391.924,301.964 391.624,306.442 394.669,309.041L393.405,312.097C393.324,312.36 393.284,312.63 393.284,312.905C393.284,314.321 394.35,315.508 395.762,315.663L395.831,315.674C395.91,315.684 395.991,315.695 396.073,315.695C396.602,315.695 397.12,315.54 397.571,315.252C398.041,314.951 398.406,314.523 398.627,314.019L399.544,311.955C400.281,312.229 401.04,312.369 401.801,312.369C404.971,312.369 407.491,310.081 408.792,307.937C409.272,307.14 409.563,306.67 409.564,306.667C409.632,306.555 409.652,306.426 409.623,306.302M394.283,312.528C394.631,311.663 395.561,309.372 395.688,309.149C395.807,308.942 395.752,308.676 395.561,308.533C392.5,306.217 392.93,302.15 394.624,299.352C394.827,299.021 394.994,298.742 395.121,298.53L395.15,298.481L397.452,299.877C397.561,299.944 397.706,299.963 397.812,299.934C397.933,299.908 398.042,299.83 398.11,299.718L399.821,296.895C400.074,296.479 400.676,296.327 401.101,296.583C401.537,296.848 401.677,297.422 401.413,297.862L399.704,300.684C399.637,300.793 399.617,300.922 399.648,301.046C399.678,301.17 399.755,301.274 399.864,301.339L403.818,303.735C404.04,303.866 404.343,303.791 404.473,303.574L406.184,300.751C406.312,300.539 406.517,300.39 406.76,300.329C406.997,300.269 407.249,300.311 407.462,300.442C407.677,300.569 407.826,300.772 407.885,301.013C407.946,301.252 407.907,301.501 407.777,301.714L406.061,304.537C405.996,304.648 405.977,304.776 406.007,304.898C406.038,305.024 406.118,305.13 406.225,305.192L408.501,306.571C408.37,306.788 408.192,307.08 407.976,307.438C406.864,309.269 404.579,311.408 401.797,311.408C401.027,311.408 400.264,311.241 399.529,310.914C399.319,310.819 399.057,310.894 398.923,311.11L397.751,313.628C397.461,314.298 396.803,314.732 396.076,314.732C395.068,314.732 394.248,313.911 394.248,312.902C394.246,312.771 394.261,312.638 394.283,312.528" style="fill:rgb(127,168,173);fill-rule:nonzero;"/>
        </g>
        <g id="path32" transform="matrix(3.00066,0,0,3.00066,-761.912,-591.184)">
            <path d="M381.694,310.892L381.378,310.872L381.333,310.87C381.099,310.87 380.886,311.073 380.868,311.313C380.265,319.679 387.139,327.033 396.192,327.705C396.555,327.733 396.943,327.748 397.35,327.754L397.354,327.754C397.614,327.754 397.824,327.55 397.833,327.292C398.114,318.79 391.029,311.586 381.694,310.892M396.884,326.787C396.677,326.779 396.469,326.769 396.261,326.755C387.982,326.138 381.522,319.471 381.796,311.859C390.283,312.567 396.873,319.089 396.884,326.787" style="fill:rgb(127,168,173);fill-rule:nonzero;"/>
        </g>
        <g id="path34" transform="matrix(3.00066,0,0,3.00066,-761.912,-591.184)">
            <path d="M414.042,313.412C413.959,313.317 413.838,313.259 413.717,313.251L413.515,313.232C413.152,313.204 412.783,313.192 412.419,313.192C405.468,313.192 399.652,318.144 399.18,324.466C399.111,325.412 399.161,326.368 399.329,327.307C399.368,327.536 399.564,327.703 399.797,327.703C399.818,327.703 399.835,327.701 399.852,327.699C407.591,326.844 413.607,320.981 414.156,313.761C414.165,313.635 414.124,313.509 414.042,313.412M413.159,314.167C412.433,320.61 407.132,325.736 400.2,326.694C400.104,325.982 400.082,325.256 400.134,324.535C400.57,318.712 405.963,314.149 412.413,314.149C412.677,314.149 412.921,314.155 413.159,314.167" style="fill:rgb(200,66,30);fill-rule:nonzero;"/>
        </g>
    </g>
</svg>
