<svg viewBox="0 0 24 19" xmlns="http://www.w3.org/2000/svg">
	<defs>
		<style>.cls-1{fill:#d7e5e6;}</style>
	</defs>
	<g data-name="Vrstva 2" id="Vrstva_2">
		<g data-name="Izolovaný režim" id="Izolovaný_režim">
			<path class="cls-1" d="M24,9.69a.5.5,0,0,0,0-.38.36.36,0,0,0-.11-.16l-9-9a.48.48,0,0,0-.7,0,.48.48,0,0,0,0,.7L22.29,9H.5a.5.5,0,0,0,0,1H22.29l-8.14,8.15a.48.48,0,0,0,0,.7.48.48,0,0,0,.7,0l9-9A.36.36,0,0,0,24,9.69Z"/>
		</g>
	</g>
</svg>
