<svg viewBox="0 0 106.45 103.03" xmlns="http://www.w3.org/2000/svg">
	<defs>
		<style>.cls-1{fill:#bacdd1;}</style>
	</defs>
	<path class="cls-1" d="M47.75,64a7.3,7.3,0,0,0,.94.1"/>
	<path class="cls-1" d="M47.75,64a7.3,7.3,0,0,0,.94.1"/>
	<path class="cls-1" d="M92,34.52a1.51,1.51,0,0,0-.69-1L84,29.16l4.68-7.7a6,6,0,1,0-10.3-6.25l-4.68,7.71-10-6.07,4.67-7.71a6,6,0,0,0-10.3-6.25L53.37,10.6,46,6.13A1.52,1.52,0,0,0,44.84,6a1.55,1.55,0,0,0-.94.7h0s-.06.1-.13.22c-.3.5-1.12,1.88-2.32,3.86-6,9.92-7,24.23,2.75,32.52l-4,9.77a8.61,8.61,0,0,0-.39,2.57,8.86,8.86,0,0,0,7.92,8.81l.22,0a6.48,6.48,0,0,0,.77.07,9,9,0,0,0,8.15-5.36l2.93-6.59A20.74,20.74,0,0,0,67,53.89h0c10.13,0,18.18-7.31,22.33-14.15,1.54-2.55,2.47-4.05,2.47-4.06A1.54,1.54,0,0,0,92,34.52M43,54.4c1.11-2.76,4.08-10.08,4.48-10.79a1.52,1.52,0,0,0-.4-2c-9.78-7.4-8.41-20.38-3-29.32.64-1.06,1.18-2,1.58-2.63l.09-.15L53.09,14a1.53,1.53,0,0,0,2.1-.51l5.46-9a3.1,3.1,0,0,1,4.09-1,3,3,0,0,1,1,4.09l-5.46,9a1.54,1.54,0,0,0-.18,1.16,1.5,1.5,0,0,0,.69.94l12.63,7.65a1.56,1.56,0,0,0,2.09-.51l5.47-9a3,3,0,0,1,1.84-1.35,3,3,0,0,1,3.25,4.43l-5.49,9A1.55,1.55,0,0,0,80.41,30a1.53,1.53,0,0,0,.7.94l7.27,4.4L86.7,38.15C83.15,44,75.85,50.83,67,50.83a17.79,17.79,0,0,1-7.24-1.57,1.54,1.54,0,0,0-1.94.62l-3.74,8A5.83,5.83,0,0,1,42.85,55.6,6.33,6.33,0,0,1,43,54.4Z"/>
	<path class="cls-1" d="M2.76,49.18l-1-.07H1.6A1.54,1.54,0,0,0,.12,50.52c-1.93,26.73,20,50.21,48.94,52.36,1.16.09,2.4.14,3.7.15h0a1.52,1.52,0,0,0,1.53-1.47C55.2,74.4,32.57,51.39,2.76,49.18M51.27,100c-.66,0-1.32-.06-2-.11-26.45-2-47.08-23.26-46.21-47.58C30.19,54.53,51.24,75.36,51.27,100Z"/>
	<path class="cls-1" d="M106.08,57.23a1.56,1.56,0,0,0-1-.52l-.65-.06c-1.16-.09-2.34-.12-3.5-.12-22.2,0-40.77,15.81-42.28,36a36.8,36.8,0,0,0,.47,9.07,1.52,1.52,0,0,0,1.5,1.26h.17c24.72-2.73,43.94-21.46,45.69-44.52a1.55,1.55,0,0,0-.36-1.11m-2.82,2.41c-2.32,20.58-19.25,37-41.39,40a33.81,33.81,0,0,1-.22-6.9C63,74.15,80.27,59.58,100.87,59.58,101.72,59.58,102.5,59.6,103.26,59.64Z"/>
</svg>
